
CoreyMSchafer@gmail.com
corey.schafer@university.edu
corey-321-schafer@my-work.net

(C|c)orey.(S|s|\d+.s)[a-zA-Z]+@[a-z-]+.(com|edu|net)

shorter ver
[a-zA-Z.0-9-]+@[a-z-]+.(com|edu|net)
[a-zA-Z.\d-]*@[a-z-]*.(com|edu|net)

best ver
[a-zA-Z0-9_.+-]+@[a-zA-Z0-9-]+\.[a-zA-Z0-9-.]+